<svg viewBox="0 0 18 18" xmlns="http://www.w3.org/2000/svg">
	<path fill="currentColor" d="M7.524,2.083c0.303,-0.53 0.866,-0.857 1.476,-0.857c0.61,0 1.173,0.327 1.476,0.857l7.071,12.374c0.3,0.526 0.298,1.172 -0.006,1.696c-0.304,0.524 -0.864,0.847 -1.47,0.847l-14.142,-0c-0.606,-0 -1.166,-0.323 -1.47,-0.847c-0.304,-0.524 -0.306,-1.17 -0.006,-1.696l7.071,-12.374Zm1.976,10.917l-1,-0c-0.133,-0 -0.26,0.053 -0.354,0.146c-0.093,0.094 -0.146,0.221 -0.146,0.354l0,1c-0,0.133 0.053,0.26 0.146,0.354c0.094,0.093 0.221,0.146 0.354,0.146l1,-0c0.133,0 0.26,-0.053 0.354,-0.146c0.093,-0.094 0.146,-0.221 0.146,-0.354l-0,-1c0,-0.133 -0.053,-0.26 -0.146,-0.354c-0.094,-0.093 -0.221,-0.146 -0.354,-0.146Zm-0,-8l-1,0c-0.133,-0 -0.26,0.053 -0.354,0.146c-0.093,0.094 -0.146,0.221 -0.146,0.354l-0,5c-0,0.133 0.053,0.26 0.146,0.354c0.094,0.093 0.221,0.146 0.354,0.146l1,-0c0.133,0 0.26,-0.053 0.354,-0.146c0.093,-0.094 0.146,-0.221 0.146,-0.354l0,-5c0,-0.133 -0.053,-0.26 -0.146,-0.354c-0.094,-0.093 -0.221,-0.146 -0.354,-0.146Z" />
</svg>
