<svg viewBox="0 0 18 18" xmlns="http://www.w3.org/2000/svg" style="fill:none;stroke:currentColor;">
	<path d="M12,12L14,12C14.53,12 15.039,11.789 15.414,11.414C15.789,11.039 16,10.53 16,10C16,8.257 16,5.743 16,4C16,3.47 15.789,2.961 15.414,2.586C15.039,2.211 14.53,2 14,2L8,2C7.47,2 6.961,2.211 6.586,2.586C6.211,2.961 6,3.47 6,4C6,5 6,6 6,6" />
	<rect x="2" y="6" width="10" height="10" rx="2" ry="2" />
</svg>
