<svg viewBox="0 0 18 18" xmlns="http://www.w3.org/2000/svg" style="fill:none;stroke:currentColor;stroke-linecap:round;stroke-linejoin:round;">
	<path d="M15,12L15,14C15,15.105 14.105,16 13,16L5,16C3.895,16 3,15.105 3,14L3,12" />
	<path d="M9,1L9,10L12,7L9,10L6,7" />
</svg>
