<svg viewBox="0 0 18 18" xmlns="http://www.w3.org/2000/svg" style="fill:currentColor">
	<path d="M3,3C3,2.448 3.448,2 4,2C4.611,2 5.389,2 6,2C6.552,2 7,2.448 7,3C7,5.577 7,12.423 7,15C7,15.552 6.552,16 6,16C5.389,16 4.611,16 4,16C3.448,16 3,15.552 3,15C3,12.423 3,5.577 3,3Z" style="fill-rule:nonzero;" />
	<path d="M11,3C11,2.448 11.448,2 12,2C12.611,2 13.389,2 14,2C14.552,2 15,2.448 15,3C15,5.577 15,12.423 15,15C15,15.552 14.552,16 14,16C13.389,16 12.611,16 12,16C11.448,16 11,15.552 11,15C11,12.423 11,5.577 11,3Z" style="fill-rule:nonzero;" />
</svg>
