<?xml version="1.0" encoding="UTF-8" standalone="no"?>
<!DOCTYPE svg PUBLIC "-//W3C//DTD SVG 1.1//EN" "http://www.w3.org/Graphics/SVG/1.1/DTD/svg11.dtd">
<svg width="100%" height="100%" viewBox="0 0 300 50" version="1.1" xmlns="http://www.w3.org/2000/svg" xmlns:xlink="http://www.w3.org/1999/xlink" xml:space="preserve" xmlns:serif="http://www.serif.com/" style="fill-rule:evenodd;clip-rule:evenodd;stroke-linejoin:round;stroke-miterlimit:1.41421;">
	<path d="M16.059,48.984l-14.393,-0.006l0,-7.996c0.004,-22.062 17.917,-39.972 39.98,-39.972c22.063,0 39.976,17.91 39.98,39.972l0,8.028l-1.599,-0.001l0,-7.227c-0.004,-17.649 -14.334,-31.977 -31.984,-31.977c-17.65,0 -31.98,14.328 -31.984,31.977l0,7.202Z" style="fill:#55a75d;" />
	<path d="M40.047,48.978l-11.195,0.032l0,-6.421c0,-13.681 11.107,-24.788 24.788,-24.788c13.681,0 24.788,11.107 24.788,24.788l0,6.421l-1.599,0l0,-5.629c-0.005,-10.147 -8.244,-18.383 -18.391,-18.383c-10.148,0 -18.387,8.236 -18.391,18.383l0,5.597Z" style="fill:#288a48;" />
	<path d="M57.638,49.002l-7.996,0l0,-4.814c0,-7.061 5.733,-12.793 12.794,-12.793c7.061,0 12.793,5.732 12.793,12.793l0,4.814l-1.599,0l0,-4.014c0,-4.413 -3.583,-7.996 -7.996,-7.996c-4.413,0 -7.996,3.583 -7.996,7.996l0,4.014Z" style="fill:#156a3a;" />
	<g>
		<path d="M116.579,49.143l0,-40.145l-14.338,0l0,-8.174l38.398,0l0,8.174l-14.304,0l0,40.145l-9.756,0Z" style="fill:#156a3a;fill-rule:nonzero;" />
		<path d="M146.869,0.824l9.756,0l0,26.17c0,4.153 0.121,6.845 0.362,8.075c0.418,1.978 1.412,3.565 2.983,4.763c1.571,1.197 3.719,1.796 6.444,1.796c2.769,0 4.856,-0.566 6.262,-1.697c1.407,-1.132 2.253,-2.522 2.538,-4.17c0.286,-1.648 0.429,-4.383 0.429,-8.207l0,-26.73l9.756,0l0,25.379c0,5.801 -0.264,9.899 -0.791,12.294c-0.528,2.395 -1.5,4.417 -2.917,6.065c-1.417,1.648 -3.313,2.961 -5.686,3.938c-2.373,0.978 -5.471,1.467 -9.294,1.467c-4.615,0 -8.114,-0.533 -10.498,-1.599c-2.384,-1.065 -4.268,-2.45 -5.653,-4.152c-1.384,-1.703 -2.296,-3.489 -2.735,-5.356c-0.638,-2.769 -0.956,-6.856 -0.956,-12.261l0,-25.775Z" style="fill:#156a3a;fill-rule:nonzero;" />
		<path d="M195.715,0.824l19.315,0c3.823,0 6.674,0.159 8.553,0.478c1.878,0.319 3.559,0.983 5.043,1.994c1.483,1.011 2.719,2.357 3.708,4.038c0.988,1.681 1.483,3.565 1.483,5.652c0,2.263 -0.61,4.34 -1.83,6.23c-1.219,1.889 -2.873,3.307 -4.96,4.251c2.944,0.857 5.208,2.319 6.79,4.384c1.582,2.066 2.373,4.494 2.373,7.284c0,2.197 -0.511,4.334 -1.533,6.411c-1.022,2.076 -2.417,3.735 -4.186,4.977c-1.769,1.241 -3.949,2.005 -6.542,2.29c-1.626,0.176 -5.548,0.286 -11.767,0.33l-16.447,0l0,-48.319Zm9.756,8.042l0,11.174l6.395,0c3.801,0 6.163,-0.055 7.086,-0.165c1.67,-0.198 2.983,-0.775 3.939,-1.731c0.955,-0.955 1.433,-2.213 1.433,-3.774c0,-1.494 -0.412,-2.708 -1.236,-3.642c-0.824,-0.933 -2.049,-1.499 -3.675,-1.697c-0.967,-0.11 -3.746,-0.165 -8.339,-0.165l-5.603,0Zm0,19.216l0,12.92l9.031,0c3.516,0 5.746,-0.099 6.691,-0.297c1.45,-0.263 2.631,-0.906 3.543,-1.928c0.912,-1.022 1.368,-2.389 1.368,-4.103c0,-1.451 -0.351,-2.681 -1.055,-3.692c-0.703,-1.011 -1.719,-1.747 -3.048,-2.208c-1.33,-0.462 -4.214,-0.692 -8.652,-0.692l-7.878,0Z" style="fill:#156a3a;fill-rule:nonzero;" />
		<rect x="244.133" y="0.824" width="9.756" height="48.319" style="fill:#156a3a;fill-rule:nonzero;" />
		<path d="M260.712,33.421l9.492,-0.923c0.572,3.186 1.731,5.527 3.478,7.021c1.746,1.494 4.103,2.241 7.069,2.241c3.143,0 5.51,-0.665 7.103,-1.994c1.593,-1.329 2.39,-2.884 2.39,-4.664c0,-1.142 -0.335,-2.115 -1.005,-2.917c-0.671,-0.802 -1.841,-1.499 -3.511,-2.093c-1.142,-0.395 -3.746,-1.098 -7.811,-2.109c-5.23,-1.297 -8.899,-2.89 -11.009,-4.779c-2.966,-2.659 -4.449,-5.9 -4.449,-9.723c0,-2.461 0.697,-4.763 2.093,-6.906c1.395,-2.142 3.406,-3.773 6.031,-4.894c2.626,-1.121 5.796,-1.681 9.509,-1.681c6.065,0 10.63,1.329 13.695,3.988c3.065,2.659 4.675,6.208 4.829,10.646l-9.756,0.429c-0.418,-2.483 -1.313,-4.269 -2.687,-5.356c-1.373,-1.088 -3.433,-1.632 -6.18,-1.632c-2.834,0 -5.053,0.582 -6.657,1.747c-1.033,0.747 -1.55,1.747 -1.55,2.999c0,1.143 0.484,2.121 1.451,2.934c1.23,1.033 4.219,2.109 8.965,3.23c4.746,1.12 8.256,2.28 10.53,3.477c2.275,1.198 4.054,2.835 5.34,4.911c1.285,2.077 1.928,4.642 1.928,7.696c0,2.769 -0.769,5.362 -2.307,7.779c-1.538,2.417 -3.714,4.213 -6.526,5.389c-2.813,1.175 -6.318,1.763 -10.514,1.763c-6.109,0 -10.8,-1.412 -14.074,-4.235c-3.274,-2.824 -5.23,-6.938 -5.867,-12.344Z" style="fill:#156a3a;fill-rule:nonzero;" />
	</g>
</svg>
