<svg viewBox="0 0 18 18" data-keywords-cs="slunce léto světlo den" data-keywords-en="sun summer light day" xmlns="http://www.w3.org/2000/svg" style="fill:none;stroke:currentColor;stroke-linecap:round;">
	<path d="M3.343,3.343L4.05,4.05" />
	<path d="M1,9L2,9" />
	<path d="M3.343,14.657L4.05,13.95" />
	<path d="M9,17L9,16" />
	<path d="M14.657,14.657L13.95,13.95" />
	<path d="M17,9L16,9" />
	<path d="M14.657,3.343L13.95,4.05" />
	<path d="M9,1L9,2" />
	<circle cx="9" cy="9" r="4" />
</svg>
