<svg viewBox="0 0 18 18" data-keywords-cs="audio hudba hlasitost potichu ticho" data-keywords-en="audio music volume mute silence" xmlns="http://www.w3.org/2000/svg" style="fill:none;stroke:currentColor;stroke-linecap:round;stroke-linejoin:round;">
	<path d="M12,6.5l5,5" />
	<path d="M12,11.5l5,-5" />
	<path d="M8,3L8.046,15.001L4,11L1,11L1,7L4,7L8,3Z" />
</svg>
