<svg viewBox="0 0 18 18" data-keywords-cs="šipka doprava vpravo další" data-keywords-en="arrow right next" xmlns="http://www.w3.org/2000/svg" style="fill:none;stroke:currentColor;stroke-linecap:round;stroke-linejoin:miter;">
	<path d="M8,4l5,5l-5,5" />
</svg>
