<svg viewBox="0 0 18 18" data-keywords-cs="přehrát pokračovat" data-keywords-en="play continue" xmlns="http://www.w3.org/2000/svg" style="fill:none;stroke:currentColor">
	<path d="M4,2.723C4,2.367 4.19,2.037 4.498,1.858C4.806,1.679 5.187,1.678 5.496,1.855C8.179,3.388 13.781,6.589 16.481,8.132C16.792,8.31 16.984,8.641 16.984,9C16.984,9.359 16.792,9.69 16.481,9.868C13.781,11.411 8.179,14.612 5.496,16.145C5.187,16.322 4.806,16.321 4.498,16.142C4.19,15.963 4,15.633 4,15.277L4,2.723Z" />
</svg>
