<?xml version="1.0" encoding="UTF-8" standalone="no"?>
<!DOCTYPE svg PUBLIC "-//W3C//DTD SVG 1.1//EN" "http://www.w3.org/Graphics/SVG/1.1/DTD/svg11.dtd">
<svg width="100%" height="100%" viewBox="0 0 100 90" version="1.1" xmlns="http://www.w3.org/2000/svg" xmlns:xlink="http://www.w3.org/1999/xlink" xml:space="preserve" xmlns:serif="http://www.serif.com/" style="fill-rule:evenodd;clip-rule:evenodd;stroke-linejoin:round;stroke-miterlimit:1.41421;">
	<path class="black" d="M37.13,67.66c3.118,-1.11 7.735,-1.813 12.883,-1.813c5.148,0 9.765,0.703 12.883,1.813l4.117,0l0,3.4c0,2.877 -7.617,5.213 -17,5.213c-9.382,0 -17,-2.336 -17,-5.213c0,0 0,-3.4 0,-3.4l4.117,0Z" />
	<ellipse class="gray" cx="50.013" cy="67.66" rx="17" ry="5.213" />
	<path class="yellow" d="M38.926,67.66l0,-49.867l22.174,0l0,49.867c0,1.877 -4.968,3.4 -11.087,3.4c-6.119,0 -11.087,-1.523 -11.087,-3.4Z" />
	<path class="red-gray" d="M38.926,23.46c0,1.877 4.968,3.4 11.087,3.4c6.119,0 11.087,-1.523 11.087,-3.4l0,2.267c0,1.876 -4.968,3.4 -11.087,3.4c-6.119,0 -11.087,-1.524 -11.087,-3.4l0,-2.267Z" />
	<ellipse class="gray" cx="50.013" cy="17.793" rx="11.087" ry="3.4" />
</svg>
